{
    "name" : "Akshay Nar",
    "profession" : "DevOps Engineer",
    "about" : {
        "roles_and_responsibilities" : {
            "description" : "Having worked as DevOps for past 2 and more years. I have assumed a wide variety of roles and performed different range of reponsibilities.",
            "roles" : [
                {"serverless" : "I have worked across different projects, starting with I have worked on creating a complete serverless platform from scratch. Here I worked with GCP services like Cloud Functions, Pub/Sub, CloudSQL, creating a serveless platform for a Media Platform which used Machine Learning across different value chains in Media Industry"},
                {"aws&gcp" : "I also have worked on AWS with different services like EC2, S3, Lambda Functions, API Gateway and more. The media platform for which I worked on creating a serverless infrastrtucre had its resources on AWS. I have also worked on migration of workloads from AWS to GCP in the same process"},
                {"datapipelines" : "I have worked on creating Data Pipelines from scratch where I have worked across Data Ingestion, Cleaning and Structuring the data. Here I worked with python extensively, also with SQL"},
                {"django" : "I also have experience creating Django APIs"},
                {"devopstools" : "On the DevOps end I have majorly worked with Docker, Kubernetes, Ansible and Jenkins. Majorly I have developed Jenkins pipelines for building and deploying workloads into both Kubernetes and Compute platform(Compute Engine for GCP, EC2 for AWS). While doing do so I have used Ansible for creating infrastrture and configuration management. Docker for creating containers and container images for different types of workloads. Kubernetes as container orchestration platform for deploying container workloads in it"},
                {"migration" : "I have also worked on migrating workloads from App Engine in GCP to GKE."},
                {"monolith&microservice" : "I have worked with both Monolith and Microservices style architecture. Also with different tools used in it(ex. Consul)"},
                {"webserverconfig" : "Recently I have been working with NGINX configuration and also have experience with that. I have also worked with Apache"},
                {"logging" : "I have also worked with setting up ELK infrastructure. Also worked with different types on logging and monitoring systems"}
            ]
        },
    "stack":[
        {"cloudplatforms" : "GCP, AWS"},
        {"logging&monitoring" : "ELK, Stackdriver, PaperTrail"},
        {"databases" : "CloudSQL, RDS, MySQL, Postgres, MongoDB, Elastic"},
        {"webserver" : "Nginx, Apache"},
        {"webframeworks" : "Django"},
        {"cicd" : "Jenkins, Cloud Build"},
        {"configurationmanagement" : "Ansible"},
        {"artifactrepository" : "Nexus"},
        {"containertechnology" : "Docker, Kubernetes"},
        {"programminglanguages" : "Python"},
        {"scriptinglanguages" : "Bash"},
        {"othertools" : "Cloud Pub/Sub, RabbitMQ, Cloud Functions, Lambda Functions, API Gateway, Kafka, OpenFaas"}
    ]
    },
    "interests" : "Having worked across different types of workloads and production environments, I want to work with thousands+ scale workloads. Define CI/CD strategies and build a world class infrastructure",
    "otherinterests" : "I like reading. I am a avid reader and like reading from tech to politics to everything. I also like playing football. Apart from this, I like learning different new things may be its tech or any other aspect of life"
}